Copyright 1986-2020 Xilinx, Inc. All Rights Reserved.
--------------------------------------------------------------------------------------------------------------------------------------------------------------------------------
| Tool Version : Vivado v.2020.1 (win64) Build 2902540 Wed May 27 19:54:49 MDT 2020
| Date         : Wed Jun 30 16:11:39 2021
| Host         : LAPTOP-3KTKDR1U running 64-bit major release  (build 9200)
| Command      : report_timing_summary -max_paths 10 -file top_timing_summary_routed.rpt -pb top_timing_summary_routed.pb -rpx top_timing_summary_routed.rpx -warn_on_violation
| Design       : top
| Device       : 7a100t-csg324
| Speed File   : -1  PRODUCTION 1.23 2018-06-13
--------------------------------------------------------------------------------------------------------------------------------------------------------------------------------

Timing Summary Report

------------------------------------------------------------------------------------------------
| Timer Settings
| --------------
------------------------------------------------------------------------------------------------

  Enable Multi Corner Analysis               :  Yes
  Enable Pessimism Removal                   :  Yes
  Pessimism Removal Resolution               :  Nearest Common Node
  Enable Input Delay Default Clock           :  No
  Enable Preset / Clear Arcs                 :  No
  Disable Flight Delays                      :  No
  Ignore I/O Paths                           :  No
  Timing Early Launch at Borrowing Latches   :  No
  Borrow Time for Max Delay Exceptions       :  Yes
  Merge Timing Exceptions                    :  Yes

  Corner  Analyze    Analyze    
  Name    Max Paths  Min Paths  
  ------  ---------  ---------  
  Slow    Yes        Yes        
  Fast    Yes        Yes        



check_timing report

Table of Contents
-----------------
1. checking no_clock (308)
2. checking constant_clock (0)
3. checking pulse_width_clock (0)
4. checking unconstrained_internal_endpoints (185)
5. checking no_input_delay (17)
6. checking no_output_delay (31)
7. checking multiple_clock (0)
8. checking generated_clocks (0)
9. checking loops (0)
10. checking partial_input_delay (0)
11. checking partial_output_delay (0)
12. checking latch_loops (0)

1. checking no_clock (308)
--------------------------
 There are 77 register/latch pins with no clock driven by root clock pin: clk (HIGH)

 There are 15 register/latch pins with no clock driven by root clock pin: sw[0] (HIGH)

 There are 6 register/latch pins with no clock driven by root clock pin: sw[10] (HIGH)

 There are 6 register/latch pins with no clock driven by root clock pin: sw[11] (HIGH)

 There are 6 register/latch pins with no clock driven by root clock pin: sw[12] (HIGH)

 There are 6 register/latch pins with no clock driven by root clock pin: sw[13] (HIGH)

 There are 6 register/latch pins with no clock driven by root clock pin: sw[14] (HIGH)

 There are 6 register/latch pins with no clock driven by root clock pin: sw[15] (HIGH)

 There are 15 register/latch pins with no clock driven by root clock pin: sw[1] (HIGH)

 There are 15 register/latch pins with no clock driven by root clock pin: sw[2] (HIGH)

 There are 15 register/latch pins with no clock driven by root clock pin: sw[3] (HIGH)

 There are 15 register/latch pins with no clock driven by root clock pin: sw[4] (HIGH)

 There are 15 register/latch pins with no clock driven by root clock pin: sw[5] (HIGH)

 There are 9 register/latch pins with no clock driven by root clock pin: i1/FSM_sequential_estado_actual_reg[0]/Q (HIGH)

 There are 9 register/latch pins with no clock driven by root clock pin: i1/FSM_sequential_estado_actual_reg[1]/Q (HIGH)

 There are 6 register/latch pins with no clock driven by root clock pin: i1/piso_sig_reg[0]/Q (HIGH)

 There are 6 register/latch pins with no clock driven by root clock pin: i1/piso_sig_reg[1]/Q (HIGH)

 There are 6 register/latch pins with no clock driven by root clock pin: i1/piso_sig_reg[2]/Q (HIGH)

 There are 3 register/latch pins with no clock driven by root clock pin: i1_1/FSM_onehot_estado_actual_reg[0]/Q (HIGH)

 There are 3 register/latch pins with no clock driven by root clock pin: i1_1/FSM_onehot_estado_actual_reg[1]/Q (HIGH)

 There are 3 register/latch pins with no clock driven by root clock pin: i1_1/FSM_onehot_estado_actual_reg[2]/Q (HIGH)

 There are 3 register/latch pins with no clock driven by root clock pin: i1_1/FSM_onehot_estado_actual_reg[3]/Q (HIGH)

 There are 3 register/latch pins with no clock driven by root clock pin: i1_1/FSM_onehot_estado_actual_reg[4]/Q (HIGH)

 There are 3 register/latch pins with no clock driven by root clock pin: i1_1/FSM_onehot_estado_actual_reg[5]/Q (HIGH)

 There are 15 register/latch pins with no clock driven by root clock pin: i2/i2_1/clk_sig_reg/Q (HIGH)

 There are 6 register/latch pins with no clock driven by root clock pin: i3/i3_10/sreg_reg[0]/Q (HIGH)

 There are 6 register/latch pins with no clock driven by root clock pin: i3/i3_10/sreg_reg[1]/Q (HIGH)

 There are 6 register/latch pins with no clock driven by root clock pin: i3/i3_10/sreg_reg[2]/Q (HIGH)

 There are 6 register/latch pins with no clock driven by root clock pin: i3/i3_8/sreg_reg[0]/Q (HIGH)

 There are 6 register/latch pins with no clock driven by root clock pin: i3/i3_8/sreg_reg[1]/Q (HIGH)

 There are 6 register/latch pins with no clock driven by root clock pin: i3/i3_8/sreg_reg[2]/Q (HIGH)


2. checking constant_clock (0)
------------------------------
 There are 0 register/latch pins with constant_clock.


3. checking pulse_width_clock (0)
---------------------------------
 There are 0 register/latch pins which need pulse_width check


4. checking unconstrained_internal_endpoints (185)
--------------------------------------------------
 There are 185 pins that are not constrained for maximum delay. (HIGH)

 There are 0 pins that are not constrained for maximum delay due to constant clock.


5. checking no_input_delay (17)
-------------------------------
 There are 17 input ports with no input delay specified. (HIGH)

 There are 0 input ports with no input delay but user has a false path constraint.


6. checking no_output_delay (31)
--------------------------------
 There are 31 ports with no output delay specified. (HIGH)

 There are 0 ports with no output delay but user has a false path constraint

 There are 0 ports with no output delay but with a timing clock defined on it or propagating through it


7. checking multiple_clock (0)
------------------------------
 There are 0 register/latch pins with multiple clocks.


8. checking generated_clocks (0)
--------------------------------
 There are 0 generated clocks that are not connected to a clock source.


9. checking loops (0)
---------------------
 There are 0 combinational loops in the design.


10. checking partial_input_delay (0)
------------------------------------
 There are 0 input ports with partial input delay specified.


11. checking partial_output_delay (0)
-------------------------------------
 There are 0 ports with partial output delay specified.


12. checking latch_loops (0)
----------------------------
 There are 0 combinational latch loops in the design through latch input



------------------------------------------------------------------------------------------------
| Design Timing Summary
| ---------------------
------------------------------------------------------------------------------------------------

    WNS(ns)      TNS(ns)  TNS Failing Endpoints  TNS Total Endpoints      WHS(ns)      THS(ns)  THS Failing Endpoints  THS Total Endpoints     WPWS(ns)     TPWS(ns)  TPWS Failing Endpoints  TPWS Total Endpoints  
    -------      -------  ---------------------  -------------------      -------      -------  ---------------------  -------------------     --------     --------  ----------------------  --------------------  
         NA           NA                     NA                   NA           NA           NA                     NA                   NA           NA           NA                      NA                    NA  


There are no user specified timing constraints.


------------------------------------------------------------------------------------------------
| Clock Summary
| -------------
------------------------------------------------------------------------------------------------


------------------------------------------------------------------------------------------------
| Intra Clock Table
| -----------------
------------------------------------------------------------------------------------------------

Clock             WNS(ns)      TNS(ns)  TNS Failing Endpoints  TNS Total Endpoints      WHS(ns)      THS(ns)  THS Failing Endpoints  THS Total Endpoints     WPWS(ns)     TPWS(ns)  TPWS Failing Endpoints  TPWS Total Endpoints  
-----             -------      -------  ---------------------  -------------------      -------      -------  ---------------------  -------------------     --------     --------  ----------------------  --------------------  


------------------------------------------------------------------------------------------------
| Inter Clock Table
| -----------------
------------------------------------------------------------------------------------------------

From Clock    To Clock          WNS(ns)      TNS(ns)  TNS Failing Endpoints  TNS Total Endpoints      WHS(ns)      THS(ns)  THS Failing Endpoints  THS Total Endpoints  
----------    --------          -------      -------  ---------------------  -------------------      -------      -------  ---------------------  -------------------  


------------------------------------------------------------------------------------------------
| Other Path Groups Table
| -----------------------
------------------------------------------------------------------------------------------------

Path Group    From Clock    To Clock          WNS(ns)      TNS(ns)  TNS Failing Endpoints  TNS Total Endpoints      WHS(ns)      THS(ns)  THS Failing Endpoints  THS Total Endpoints  
----------    ----------    --------          -------      -------  ---------------------  -------------------      -------      -------  ---------------------  -------------------  


------------------------------------------------------------------------------------------------
| Timing Details
| --------------
------------------------------------------------------------------------------------------------


