Design Route Status
                                               :      # nets :
   ------------------------------------------- : ----------- :
   # of logical nets.......................... :         345 :
       # of nets not needing routing.......... :         126 :
           # of internally routed nets........ :         126 :
       # of routable nets..................... :         219 :
           # of fully routed nets............. :         219 :
       # of nets with routing errors.......... :           0 :
   ------------------------------------------- : ----------- :

